[
{
    "model": "main.tag",
    "pk": 1,
    "fields": {
        "nome": "Acesso",
        "slug": "acesso",
        "icon": ""
    }
},
{
    "model": "main.tag",
    "pk": 2,
    "fields": {
        "nome": "Privacidade",
        "slug": "priv",
        "icon": ""
    }
},
{
    "model": "main.tag",
    "pk": 3,
    "fields": {
        "nome": "Liberdade de express\u00e3o",
        "slug": "libex",
        "icon": ""
    }
},
{
    "model": "main.tag",
    "pk": 4,
    "fields": {
        "nome": "G\u00eanero",
        "slug": "genero",
        "icon": ""
    }
},
{
    "model": "main.tag",
    "pk": 5,
    "fields": {
        "nome": "Inova\u00e7\u00e3o",
        "slug": "inov",
        "icon": ""
    }
},
{
    "model": "main.tag",
    "pk": 6,
    "fields": {
        "nome": "Direito do consumidor",
        "slug": "consumo",
        "icon": ""
    }
}
]
