<?xml version="1.0" encoding="UTF-8"?>
<svg width="136px" height="126px" viewBox="0 0 136 126" version="1.1" xmlns="http://www.w3.org/2000/svg" xmlns:xlink="http://www.w3.org/1999/xlink">
    <!-- Generator: Sketch 44.1 (41455) - http://www.bohemiancoding.com/sketch -->
    <title>printing1icon</title>
    <desc>Created with Sketch.</desc>
    <defs></defs>
    <g id="Symbols" stroke="none" stroke-width="1" fill="none" fill-rule="evenodd">
        <g id="printing1" fill="#DAF2FC">
            <path d="M131.184,57.175 C128.114,54.105 124.434,52.571 120.143,52.571 L114.93,52.571 L114.93,31.714 C114.93,29.542 114.385,27.151 113.299,24.545 C112.213,21.938 110.91,19.874 109.389,18.353 L97.004,5.969 C95.484,4.449 93.42,3.145 90.813,2.058 C88.206,0.972 85.817,0.429 83.643,0.429 L28.893,0.429 C26.72,0.429 24.873,1.189 23.352,2.71 C21.832,4.23 21.071,6.077 21.071,8.25 L21.071,52.571 L15.857,52.571 C11.566,52.571 7.886,54.106 4.817,57.175 C1.748,60.243 0.214,63.923 0.214,68.214 L0.214,102.108 C0.214,102.815 0.472,103.424 0.988,103.942 C1.504,104.457 2.115,104.714 2.821,104.714 L21.071,104.714 L21.071,117.75 C21.071,119.923 21.831,121.77 23.352,123.29 C24.873,124.81 26.72,125.571 28.893,125.571 L107.107,125.571 C109.279,125.571 111.128,124.81 112.648,123.29 C114.168,121.769 114.929,119.923 114.929,117.75 L114.929,104.714 L133.179,104.714 C133.884,104.714 134.495,104.457 135.011,103.942 C135.527,103.424 135.784,102.815 135.784,102.108 L135.784,68.214 C135.785,63.923 134.252,60.243 131.184,57.175 L131.184,57.175 Z M104.5,115.143 L31.5,115.143 L31.5,94.287 L104.5,94.287 L104.5,115.143 L104.5,115.143 Z M104.5,63 L31.5,63 L31.5,10.858 L83.643,10.858 L83.643,23.893 C83.643,26.066 84.405,27.912 85.924,29.433 C87.445,30.954 89.291,31.714 91.465,31.714 L104.5,31.714 L104.5,63 L104.5,63 Z M123.809,71.881 C122.778,72.912 121.555,73.429 120.143,73.429 C118.731,73.429 117.509,72.912 116.477,71.881 C115.446,70.85 114.93,69.626 114.93,68.214 C114.93,66.802 115.446,65.58 116.477,64.548 C117.509,63.516 118.731,63 120.143,63 C121.555,63 122.778,63.516 123.809,64.548 C124.841,65.58 125.358,66.802 125.358,68.214 C125.358,69.626 124.842,70.85 123.809,71.881 L123.809,71.881 Z" id="Shape"></path>
        </g>
    </g>
</svg>