<?xml version="1.0" encoding="UTF-8"?>
<svg width="114px" height="114px" viewBox="0 0 114 114" version="1.1" xmlns="http://www.w3.org/2000/svg" xmlns:xlink="http://www.w3.org/1999/xlink">
    <!-- Generator: Sketch 44.1 (41455) - http://www.bohemiancoding.com/sketch -->
    <title>rss25icon</title>
    <desc>Created with Sketch.</desc>
    <defs></defs>
    <g id="Symbols" stroke="none" stroke-width="1" fill="none" fill-rule="evenodd">
        <g id="rss25" fill="#000000">
            <g id="Group" transform="translate(-1.000000, -1.000000)">
                <path d="M16.279,84.072 C11.933,84.072 8.24,85.593 5.198,88.634 C2.157,91.676 0.636,95.369 0.636,99.714 C0.636,104.061 2.156,107.753 5.198,110.795 C8.24,113.836 11.934,115.357 16.279,115.357 C20.624,115.357 24.317,113.836 27.359,110.795 C30.4,107.753 31.921,104.061 31.921,99.714 C31.921,95.369 30.4,91.676 27.359,88.634 C24.318,85.593 20.625,84.072 16.279,84.072 L16.279,84.072 Z" id="Shape"></path>
                <path d="M52.29,63.703 C46.152,57.511 39.118,52.582 31.188,48.916 C23.258,45.249 14.947,43.063 6.257,42.357 L5.85,42.357 C4.438,42.357 3.27,42.819 2.347,43.742 C1.206,44.719 0.636,45.996 0.636,47.571 L0.636,58.57 C0.636,59.927 1.084,61.095 1.98,62.073 C2.876,63.052 4.003,63.595 5.361,63.703 C17.799,64.898 28.431,69.909 37.257,78.735 C46.083,87.56 51.094,98.193 52.289,110.631 C52.398,111.989 52.941,113.116 53.919,114.012 C54.897,114.909 56.064,115.358 57.422,115.358 L68.421,115.358 C69.996,115.358 71.272,114.788 72.25,113.647 C73.282,112.559 73.744,111.256 73.637,109.735 C72.93,101.046 70.743,92.735 67.078,84.805 C63.411,76.875 58.482,69.841 52.29,63.703 L52.29,63.703 Z" id="Shape"></path>
                <path d="M105.573,69.039 C99.761,56.03 91.777,44.475 81.62,34.372 C71.517,24.215 59.962,16.231 46.953,10.419 C33.945,4.608 20.325,1.348 6.094,0.642 L5.85,0.642 C4.438,0.642 3.243,1.131 2.265,2.109 C1.179,3.086 0.636,4.336 0.636,5.857 L0.636,17.507 C0.636,18.865 1.112,20.046 2.062,21.051 C3.012,22.056 4.166,22.585 5.524,22.64 C17.202,23.347 28.296,26.118 38.806,30.952 C49.316,35.786 58.441,42.073 66.181,49.812 C73.92,57.552 80.207,66.677 85.041,77.187 C89.875,87.699 92.619,98.791 93.27,110.469 C93.325,111.827 93.854,112.982 94.858,113.932 C95.864,114.882 97.073,115.359 98.485,115.359 L110.135,115.359 C111.656,115.359 112.903,114.816 113.882,113.728 C114.969,112.642 115.456,111.367 115.35,109.9 C114.645,95.668 111.385,82.048 105.573,69.039 L105.573,69.039 Z" id="Shape"></path>
            </g>
        </g>
    </g>
</svg>