<?xml version="1.0" encoding="UTF-8"?>
<svg width="19px" height="18px" viewBox="0 0 19 18" version="1.1" xmlns="http://www.w3.org/2000/svg" xmlns:xlink="http://www.w3.org/1999/xlink">
    <!-- Generator: Sketch 44.1 (41455) - http://www.bohemiancoding.com/sketch -->
    <title>telegram-logo</title>
    <desc>Created with Sketch.</desc>
    <defs></defs>
    <g id="Page-1" stroke="none" stroke-width="1" fill="none" fill-rule="evenodd">
        <g id="Home" transform="translate(-672.000000, -329.000000)" fill="#5F63BC">
            <g id="telegram-logo" transform="translate(672.000000, 329.000000)">
                <g id="Shape">
                    <path d="M15.2531,17.0476 C15.1051,17.0476 14.9581,17.0038 14.832,16.9183 L10.0679,13.6867 L7.5127,15.5253 C7.3123,15.6694 7.054,15.7057 6.8213,15.6225 C6.5889,15.5391 6.4124,15.3466 6.3494,15.1079 L5.0664,10.2457 L0.4821,8.4928 C0.1935,8.3824 0.0021,8.1063 5.61630278e-16,7.7973 C-0.0021,7.4883 0.1855,7.2096 0.4727,7.0953 L17.9039,0.1593 C17.983,0.1257 18.0667,0.1063 18.1511,0.1011 C18.1813,0.0993 18.2116,0.0993 18.2417,0.101 C18.4165,0.1114 18.5882,0.1826 18.7222,0.314 C18.7361,0.3276 18.7493,0.3415 18.7618,0.356 C18.8728,0.4828 18.9338,0.6374 18.9453,0.7949 C18.9481,0.8345 18.9479,0.8746 18.9444,0.9147 C18.942,0.9433 18.9379,0.9718 18.9321,1.0001 L15.9898,16.438 C15.9425,16.686 15.7737,16.8936 15.5405,16.9903 C15.448,17.0287 15.3503,17.0476 15.2531,17.0476 Z M10.4862,12.1579 L14.7299,15.0364 L17.0193,3.024 L8.7506,10.9806 L10.4662,12.1444 C10.4731,12.1487 10.4797,12.1533 10.4862,12.1579 Z M6.9535,11.5178 L7.5217,13.6708 L8.7459,12.7899 L7.1429,11.7025 C7.0684,11.6521 7.0046,11.5893 6.9535,11.5178 Z M2.8136,7.7782 L5.9614,8.9817 C6.1869,9.0679 6.3571,9.2575 6.4187,9.4909 L6.8179,11.0038 C6.8362,10.8293 6.9153,10.6651 7.0438,10.5414 L14.9227,2.96 L2.8136,7.7782 Z" fill-rule="nonzero"></path>
                </g>
            </g>
        </g>
    </g>
</svg>